{
    "card_type": "full_card",
    "card": {
        "related_name": "4th Test Match",
        "inactive_balls": [],
        "msgs": {
            "result": "India beat Australia by 8 wickets",
            "others": []
        },
        "batting_order": [
            [
                "b",
                "1"
            ],
            [
                "a",
                "1"
            ],
            [
                "b",
                "2"
            ],
            [
                "a",
                "2"
            ]
        ],
        "toss": {
            "decision": "bat",
            "won": "b",
            "str": "Australia won the toss and chose to bat first"
        },
        "winner_team": "a",
        "winning_ratio": {
            "a": 0,
            "b": 0
        },
        "long_description": "India won by 8 wickets India scored 332/10 in 118.1 & 106/2 in 23.5 and Australia scored 300/10 in 88.3 & 137/10 in 53.5. Ravindra Jadeja played good and he is man of the match. - India vs Australia (International Cricket Match) - 4th Test Match - India vs Australia 2017. On 25 March 2017 in Himachal Pradesh Cricket Association Stadium, Dharmasala, India.",
        "innings": {
            "b_1": {
                "batting_order": [
                    "d_warner",
                    "mat_renshaw",
                    "s_smith",
                    "s_marsh",
                    "p_handscomb",
                    "g_maxwell",
                    "m_wade",
                    "p_cummins",
                    "s_okeefe",
                    "n_lyon",
                    "j_hazlewood"
                ],
                "runs": 300,
                "balls": 531,
                "fall_of_wickets": [
                    "Matt Renshaw at 10 runs, in 1.4 over",
                    "DA Warner at 144 runs, in 34.1 over",
                    "Shaun Marsh at 153 runs, in 37.4 over",
                    "Peter Handscomb at 168 runs, in 44.5 over",
                    "Glenn Maxwell at 178 runs, in 48.6 over",
                    "Steven Smith at 208 runs, in 59.5 over",
                    "Pat Cummins at 245 runs, in 72.4 over",
                    "Steve O'Keefe at 269 runs, in 79.3 over",
                    "MS Wade at 298 runs, in 87.4 over",
                    "Nathan Michael Lyon at 300 runs, in 88.3 over"
                ],
                "wide": 0,
                "run_rate": "3.39",
                "fours": 35,
                "run_str": "300/10 in 88.3",
                "wickets": 10,
                "wicket_order": [
                    "mat_renshaw",
                    "d_warner",
                    "s_marsh",
                    "p_handscomb",
                    "g_maxwell",
                    "s_smith",
                    "p_cummins",
                    "s_okeefe",
                    "m_wade",
                    "n_lyon"
                ],
                "extras": 11,
                "bowling_order": [
                    "j_hazlewood",
                    "p_cummins",
                    "n_lyon",
                    "s_okeefe",
                    "g_maxwell"
                ],
                "key": "b_1",
                "noball": 0,
                "sixes": 3,
                "legbye": 10,
                "bye": 1,
                "overs": "88.3",
                "dotballs": 374,
                "partnerships": [
                    "{",
                    "player_a_six",
                    "0",
                    "player_a_four",
                    "2",
                    "first_ball",
                    "c29743e3-f77b-45e9-a8f2-cf3f1bdfa0bb",
                    "overs_balls",
                    "1.4",
                    "four",
                    "2",
                    "index",
                    "1",
                    "six",
                    "0",
                    "dismissed",
                    "true",
                    "player_b_four",
                    "0",
                    "start_over",
                    "0.1",
                    "end_over",
                    "1.4",
                    "innings",
                    "1",
                    "player_b_runs",
                    "1",
                    "player_b_six",
                    "0",
                    "player_b_balls",
                    "6",
                    "runs",
                    "10",
                    "balls",
                    "10",
                    "player_b",
                    "mat_renshaw",
                    "player_a",
                    "d_warner",
                    "player_a_balls",
                    "4",
                    "last_ball",
                    "0586e4c2-b980-42ac-8ce2-db9ef3bad396",
                    "player_a_runs",
                    "9",
                    "match",
                    "indaus_2017_test_04",
                    "team",
                    "b",
                    "run_rate",
                    "6.00",
                    "}",
                    "{",
                    "player_a_six",
                    "0",
                    "player_a_four",
                    "12",
                    "first_ball",
                    "3167a842-64b4-4714-84d4-aeed44099f9b",
                    "overs_balls",
                    "32.3",
                    "four",
                    "18",
                    "index",
                    "2",
                    "six",
                    "1",
                    "dismissed",
                    "true",
                    "player_b_four",
                    "6",
                    "start_over",
                    "1.5",
                    "end_over",
                    "34.1",
                    "innings",
                    "1",
                    "player_b_runs",
                    "47",
                    "player_b_six",
                    "1",
                    "player_b_balls",
                    "83",
                    "runs",
                    "134",
                    "balls",
                    "195",
                    "player_b",
                    "d_warner",
                    "player_a",
                    "s_smith",
                    "player_a_balls",
                    "112",
                    "last_ball",
                    "3bb94bc9-624b-4c8c-b12b-b69513e57cee",
                    "player_a_runs",
                    "83",
                    "match",
                    "indaus_2017_test_04",
                    "team",
                    "b",
                    "run_rate",
                    "4.12",
                    "}",
                    "{",
                    "player_a_six",
                    "0",
                    "player_a_four",
                    "0",
                    "first_ball",
                    "3ca9db9d-e489-4f1d-94ff-1bb0aa744a17",
                    "overs_balls",
                    "3.3",
                    "four",
                    "0",
                    "index",
                    "3",
                    "six",
                    "0",
                    "dismissed",
                    "true",
                    "player_b_four",
                    "0",
                    "start_over",
                    "34.2",
                    "end_over",
                    "37.4",
                    "innings",
                    "1",
                    "player_b_runs",
                    "3",
                    "player_b_six",
                    "0",
                    "player_b_balls",
                    "7",
                    "runs",
                    "9",
                    "balls",
                    "21",
                    "player_b",
                    "s_smith",
                    "player_a",
                    "s_marsh",
                    "player_a_balls",
                    "14",
                    "last_ball",
                    "52667b51-f9cf-448c-a847-19bc460b696d",
                    "player_a_runs",
                    "4",
                    "match",
                    "indaus_2017_test_04",
                    "team",
                    "b",
                    "run_rate",
                    "2.57",
                    "}",
                    "{",
                    "player_a_six",
                    "0",
                    "player_a_four",
                    "1",
                    "first_ball",
                    "be0b169a-4405-4e49-bb35-a6153d96e864",
                    "overs_balls",
                    "7.1",
                    "four",
                    "1",
                    "index",
                    "4",
                    "six",
                    "0",
                    "dismissed",
                    "true",
                    "player_b_four",
                    "0",
                    "start_over",
                    "37.5",
                    "end_over",
                    "44.5",
                    "innings",
                    "1",
                    "player_b_runs",
                    "7",
                    "player_b_six",
                    "0",
                    "player_b_balls",
                    "20",
                    "runs",
                    "15",
                    "balls",
                    "43",
                    "player_b",
                    "s_smith",
                    "player_a",
                    "p_handscomb",
                    "player_a_balls",
                    "23",
                    "last_ball",
                    "ae740fb2-42a8-4e45-81f7-9c6bc5ee9f60",
                    "player_a_runs",
                    "8",
                    "match",
                    "indaus_2017_test_04",
                    "team",
                    "b",
                    "run_rate",
                    "2.09",
                    "}",
                    "{",
                    "player_a_six",
                    "0",
                    "player_a_four",
                    "1",
                    "first_ball",
                    "7cae4eb4-be47-43bc-a366-7ebf833d06b9",
                    "overs_balls",
                    "4.1",
                    "four",
                    "1",
                    "index",
                    "5",
                    "six",
                    "0",
                    "dismissed",
                    "true",
                    "player_b_four",
                    "0",
                    "start_over",
                    "44.6",
                    "end_over",
                    "48.6",
                    "innings",
                    "1",
                    "player_b_runs",
                    "2",
                    "player_b_six",
                    "0",
                    "player_b_balls",
                    "8",
                    "runs",
                    "10",
                    "balls",
                    "25",
                    "player_b",
                    "s_smith",
                    "player_a",
                    "g_maxwell",
                    "player_a_balls",
                    "17",
                    "last_ball",
                    "765372b3-9603-4bf7-909c-6ec86b924b0f",
                    "player_a_runs",
                    "8",
                    "match",
                    "indaus_2017_test_04",
                    "team",
                    "b",
                    "run_rate",
                    "2.40",
                    "}",
                    "{",
                    "player_a_six",
                    "0",
                    "player_a_four",
                    "2",
                    "first_ball",
                    "4867b4ef-c290-498a-a38b-b2c1ebb6f4f5",
                    "overs_balls",
                    "10.5",
                    "four",
                    "2",
                    "index",
                    "6",
                    "six",
                    "1",
                    "dismissed",
                    "true",
                    "player_b_four",
                    "0",
                    "start_over",
                    "49.1",
                    "end_over",
                    "59.5",
                    "innings",
                    "1",
                    "player_b_runs",
                    "13",
                    "player_b_six",
                    "1",
                    "player_b_balls",
                    "39",
                    "runs",
                    "30",
                    "balls",
                    "65",
                    "player_b",
                    "m_wade",
                    "player_a",
                    "s_smith",
                    "player_a_balls",
                    "26",
                    "last_ball",
                    "f3e7e6bc-78f3-4f0d-b6ec-a6ad40862612",
                    "player_a_runs",
                    "16",
                    "match",
                    "indaus_2017_test_04",
                    "team",
                    "b",
                    "run_rate",
                    "2.77",
                    "}",
                    "{",
                    "player_a_six",
                    "1",
                    "player_a_four",
                    "3",
                    "first_ball",
                    "705b3015-f16a-4af2-9f0a-7ba29f1b38d3",
                    "overs_balls",
                    "12.5",
                    "four",
                    "4",
                    "index",
                    "7",
                    "six",
                    "1",
                    "dismissed",
                    "true",
                    "player_b_four",
                    "1",
                    "start_over",
                    "59.6",
                    "end_over",
                    "72.4",
                    "innings",
                    "1",
                    "player_b_runs",
                    "16",
                    "player_b_six",
                    "0",
                    "player_b_balls",
                    "37",
                    "runs",
                    "37",
                    "balls",
                    "77",
                    "player_b",
                    "m_wade",
                    "player_a",
                    "p_cummins",
                    "player_a_balls",
                    "40",
                    "last_ball",
                    "53b61cd3-b6ec-4498-b7ff-edcce69529cc",
                    "player_a_runs",
                    "21",
                    "match",
                    "indaus_2017_test_04",
                    "team",
                    "b",
                    "run_rate",
                    "2.88",
                    "}",
                    "{",
                    "player_a_six",
                    "0",
                    "player_a_four",
                    "2",
                    "first_ball",
                    "7e2aebcf-577d-4c00-9db1-2ebb2d2edd32",
                    "overs_balls",
                    "6.5",
                    "four",
                    "4",
                    "index",
                    "8",
                    "six",
                    "0",
                    "dismissed",
                    "true",
                    "player_b_four",
                    "2",
                    "start_over",
                    "72.5",
                    "end_over",
                    "79.3",
                    "innings",
                    "1",
                    "player_b_runs",
                    "16",
                    "player_b_six",
                    "0",
                    "player_b_balls",
                    "25",
                    "runs",
                    "24",
                    "balls",
                    "41",
                    "player_b",
                    "m_wade",
                    "player_a",
                    "s_okeefe",
                    "player_a_balls",
                    "16",
                    "last_ball",
                    "d40e7d10-cc40-4d42-8ba3-23ae3272d1cf",
                    "player_a_runs",
                    "8",
                    "match",
                    "indaus_2017_test_04",
                    "team",
                    "b",
                    "run_rate",
                    "3.51",
                    "}",
                    "{",
                    "player_a_six",
                    "0",
                    "player_a_four",
                    "2",
                    "first_ball",
                    "b2e6c6ab-8a80-4efd-b0db-3bba441a075a",
                    "overs_balls",
                    "8.1",
                    "four",
                    "3",
                    "index",
                    "9",
                    "six",
                    "0",
                    "dismissed",
                    "true",
                    "player_b_four",
                    "1",
                    "start_over",
                    "79.4",
                    "end_over",
                    "87.4",
                    "innings",
                    "1",
                    "player_b_runs",
                    "12",
                    "player_b_six",
                    "0",
                    "player_b_balls",
                    "24",
                    "runs",
                    "29",
                    "balls",
                    "49",
                    "player_b",
                    "m_wade",
                    "player_a",
                    "n_lyon",
                    "player_a_balls",
                    "25",
                    "last_ball",
                    "da641e02-f335-478c-af64-1f0b78c9bbb1",
                    "player_a_runs",
                    "13",
                    "match",
                    "indaus_2017_test_04",
                    "team",
                    "b",
                    "run_rate",
                    "3.55",
                    "}",
                    "{",
                    "player_a_six",
                    "0",
                    "player_a_four",
                    "0",
                    "first_ball",
                    "de902ca9-57ac-48f8-a948-de842af7b020",
                    "overs_balls",
                    "0.5",
                    "four",
                    "0",
                    "index",
                    "10",
                    "six",
                    "0",
                    "dismissed",
                    "true",
                    "player_b_four",
                    "0",
                    "start_over",
                    "87.5",
                    "end_over",
                    "88.3",
                    "innings",
                    "1",
                    "player_b_runs",
                    "0",
                    "player_b_six",
                    "0",
                    "player_b_balls",
                    "3",
                    "runs",
                    "2",
                    "balls",
                    "5",
                    "player_b",
                    "n_lyon",
                    "player_a",
                    "j_hazlewood",
                    "player_a_balls",
                    "2",
                    "last_ball",
                    "e267a9c6-6fd4-4952-aa6d-022e35192ad4",
                    "player_a_runs",
                    "2",
                    "match",
                    "indaus_2017_test_04",
                    "team",
                    "b",
                    "run_rate",
                    "2.40",
                    "}"
                ]
            },
            "a_1": {
                "batting_order": [
                    "l_rahul",
                    "m_vijay",
                    "c_pujara",
                    "a_rahane",
                    "k_nair",
                    "r_ashwin",
                    "w_saha",
                    "r_jadeja",
                    "b_kumar",
                    "k_yadav",
                    "u_yadav"
                ],
                "runs": 332,
                "balls": 709,
                "fall_of_wickets": [
                    "M Vijay at 21 runs, in 10.2 over",
                    "Lokesh Rahul at 108 runs, in 40.2 over",
                    "Cheteshwar Pujara at 157 runs, in 60.6 over",
                    "Karun Nair at 167 runs, in 64.4 over",
                    "Ajinkya Rahane at 216 runs, in 78.6 over",
                    "Ravichandran Ashwin at 221 runs, in 82.1 over",
                    "Ravindra Jadeja at 317 runs, in 112.1 over",
                    "Bhuvneshwar Kumar at 318 runs, in 113.5 over",
                    "WP Saha at 318 runs, in 114.1 over",
                    "K Yadav at 332 runs, in 118.1 over"
                ],
                "wide": 5,
                "run_rate": "2.81",
                "fours": 36,
                "run_str": "332/10 in 118.1",
                "wickets": 10,
                "wicket_order": [
                    "m_vijay",
                    "l_rahul",
                    "c_pujara",
                    "k_nair",
                    "a_rahane",
                    "r_ashwin",
                    "r_jadeja",
                    "b_kumar",
                    "w_saha",
                    "k_yadav"
                ],
                "extras": 20,
                "bowling_order": [
                    "b_kumar",
                    "u_yadav",
                    "r_ashwin",
                    "r_jadeja",
                    "k_yadav"
                ],
                "key": "a_1",
                "noball": 0,
                "sixes": 6,
                "legbye": 11,
                "bye": 4,
                "overs": "118.1",
                "dotballs": 547,
                "partnerships": [
                    {
                        "player_a_six": 0,
                        "player_a_four": 1,
                        "first_ball": "64a90bdb-64fe-4a88-91f4-51b3a496e3d3",
                        "overs_balls": "10.2",
                        "four": 3,
                        "index": 1,
                        "six": 0,
                        "dismissed": true,
                        "player_b_four": 2,
                        "start_over": "0.1",
                        "end_over": "10.2",
                        "innings": "1",
                        "player_b_runs": 11,
                        "player_b_six": 0,
                        "player_b_balls": 36,
                        "runs": 21,
                        "balls": 62,
                        "player_b": "m_vijay",
                        "player_a": "l_rahul",
                        "player_a_balls": 26,
                        "last_ball": "0a186804-95a1-4394-9cd7-72296c4bb9a5",
                        "player_a_runs": 10,
                        "match": "indaus_2017_test_04",
                        "team": "a",
                        "run_rate": "2.03"
                    },
                    {
                        "player_a_six": 0,
                        "player_a_four": 2,
                        "first_ball": "85dad740-82d4-4e13-99e4-1117722aac57",
                        "overs_balls": "30.0",
                        "four": 10,
                        "index": 2,
                        "six": 1,
                        "dismissed": true,
                        "player_b_four": 8,
                        "start_over": "10.3",
                        "end_over": "40.2",
                        "innings": "1",
                        "player_b_runs": 50,
                        "player_b_six": 1,
                        "player_b_balls": 98,
                        "runs": 87,
                        "balls": 180,
                        "player_b": "l_rahul",
                        "player_a": "c_pujara",
                        "player_a_balls": 82,
                        "last_ball": "2e8e05b1-25e3-4044-ae82-a3687631c9e4",
                        "player_a_runs": 29,
                        "match": "indaus_2017_test_04",
                        "team": "a",
                        "run_rate": "2.90"
                    },
                    {
                        "player_a_six": 1,
                        "player_a_four": 2,
                        "first_ball": "db37493f-c94f-4258-b4ad-3e0d17789632",
                        "overs_balls": "20.4",
                        "four": 6,
                        "index": 3,
                        "six": 1,
                        "dismissed": true,
                        "player_b_four": 4,
                        "start_over": "40.3",
                        "end_over": "60.6",
                        "innings": "1",
                        "player_b_runs": 28,
                        "player_b_six": 0,
                        "player_b_balls": 69,
                        "runs": 49,
                        "balls": 124,
                        "player_b": "c_pujara",
                        "player_a": "a_rahane",
                        "player_a_balls": 55,
                        "last_ball": "7880da1a-dd8c-46f7-9283-03c71d2f9d78",
                        "player_a_runs": 19,
                        "match": "indaus_2017_test_04",
                        "team": "a",
                        "run_rate": "2.37"
                    },
                    {
                        "player_a_six": 0,
                        "player_a_four": 0,
                        "first_ball": "39e1f974-611d-4311-b789-0240c8dc4061",
                        "overs_balls": "3.4",
                        "four": 1,
                        "index": 4,
                        "six": 0,
                        "dismissed": true,
                        "player_b_four": 1,
                        "start_over": "61.1",
                        "end_over": "64.4",
                        "innings": "1",
                        "player_b_runs": 5,
                        "player_b_six": 0,
                        "player_b_balls": 16,
                        "runs": 10,
                        "balls": 22,
                        "player_b": "k_nair",
                        "player_a": "a_rahane",
                        "player_a_balls": 6,
                        "last_ball": "12de8531-9499-40af-ad8c-39747446457d",
                        "player_a_runs": 5,
                        "match": "indaus_2017_test_04",
                        "team": "a",
                        "run_rate": "2.73"
                    },
                    {
                        "player_a_six": 0,
                        "player_a_four": 4,
                        "first_ball": "7e3528dc-5508-40bc-9f1a-ff8d6ea72c48",
                        "overs_balls": "14.2",
                        "four": 9,
                        "index": 5,
                        "six": 0,
                        "dismissed": true,
                        "player_b_four": 5,
                        "start_over": "64.5",
                        "end_over": "78.6",
                        "innings": "1",
                        "player_b_runs": 22,
                        "player_b_six": 0,
                        "player_b_balls": 43,
                        "runs": 49,
                        "balls": 86,
                        "player_b": "a_rahane",
                        "player_a": "r_ashwin",
                        "player_a_balls": 43,
                        "last_ball": "e3521330-0f76-4468-833f-978a785276b5",
                        "player_a_runs": 27,
                        "match": "indaus_2017_test_04",
                        "team": "a",
                        "run_rate": "3.42"
                    },
                    {
                        "player_a_six": 0,
                        "player_a_four": 0,
                        "first_ball": "e0bd5b72-185e-4f72-a306-a5f6f821d9ce",
                        "overs_balls": "3.1",
                        "four": 0,
                        "index": 6,
                        "six": 0,
                        "dismissed": true,
                        "player_b_four": 0,
                        "start_over": "79.1",
                        "end_over": "82.1",
                        "innings": "1",
                        "player_b_runs": 2,
                        "player_b_six": 0,
                        "player_b_balls": 13,
                        "runs": 5,
                        "balls": 19,
                        "player_b": "w_saha",
                        "player_a": "r_ashwin",
                        "player_a_balls": 6,
                        "last_ball": "b430f19b-bf87-44ce-8797-4c25db088b27",
                        "player_a_runs": 3,
                        "match": "indaus_2017_test_04",
                        "team": "a",
                        "run_rate": "1.58"
                    },
                    {
                        "player_a_six": 4,
                        "player_a_four": 4,
                        "first_ball": "25be9e6f-50ed-4e56-8f2f-4808b18b1265",
                        "overs_balls": "30.0",
                        "four": 6,
                        "index": 7,
                        "six": 4,
                        "dismissed": true,
                        "player_b_four": 2,
                        "start_over": "82.2",
                        "end_over": "112.1",
                        "innings": "1",
                        "player_b_runs": 28,
                        "player_b_six": 0,
                        "player_b_balls": 85,
                        "runs": 96,
                        "balls": 180,
                        "player_b": "w_saha",
                        "player_a": "r_jadeja",
                        "player_a_balls": 95,
                        "last_ball": "8ddcfff5-5792-4895-98ed-b80b97ff9ddb",
                        "player_a_runs": 63,
                        "match": "indaus_2017_test_04",
                        "team": "a",
                        "run_rate": "3.20"
                    },
                    {
                        "player_a_six": 0,
                        "player_a_four": 0,
                        "first_ball": "52a5a3cb-9e28-4b5e-b129-757b3db89ba1",
                        "overs_balls": "1.4",
                        "four": 0,
                        "index": 8,
                        "six": 0,
                        "dismissed": true,
                        "player_b_four": 0,
                        "start_over": "112.2",
                        "end_over": "113.5",
                        "innings": "1",
                        "player_b_runs": 1,
                        "player_b_six": 0,
                        "player_b_balls": 3,
                        "runs": 1,
                        "balls": 10,
                        "player_b": "w_saha",
                        "player_a": "b_kumar",
                        "player_a_balls": 7,
                        "last_ball": "a7ae8c86-5a69-42e4-bcd1-4164f323b2db",
                        "player_a_runs": 0,
                        "match": "indaus_2017_test_04",
                        "team": "a",
                        "run_rate": "0.60"
                    },
                    {
                        "player_a_six": 0,
                        "player_a_four": 0,
                        "first_ball": "2720d4f7-d1ca-4559-a069-c2cf71345520",
                        "overs_balls": "0.2",
                        "four": 0,
                        "index": 9,
                        "six": 0,
                        "dismissed": true,
                        "player_b_four": 0,
                        "start_over": "113.6",
                        "end_over": "114.1",
                        "innings": "1",
                        "player_b_runs": 0,
                        "player_b_six": 0,
                        "player_b_balls": 1,
                        "runs": 0,
                        "balls": 2,
                        "player_b": "w_saha",
                        "player_a": "k_yadav",
                        "player_a_balls": 1,
                        "last_ball": "2ea1b988-577e-4415-af04-2ca6fb2a8160",
                        "player_a_runs": 0,
                        "match": "indaus_2017_test_04",
                        "team": "a",
                        "run_rate": "0.00"
                    },
                    {
                        "player_a_six": 0,
                        "player_a_four": 0,
                        "first_ball": "b3d38f63-a549-45f3-87da-1de2cfedb5c9",
                        "overs_balls": "4.0",
                        "four": 1,
                        "index": 10,
                        "six": 0,
                        "dismissed": true,
                        "player_b_four": 1,
                        "start_over": "114.2",
                        "end_over": "118.1",
                        "innings": "1",
                        "player_b_runs": 7,
                        "player_b_six": 0,
                        "player_b_balls": 16,
                        "runs": 14,
                        "balls": 24,
                        "player_b": "k_yadav",
                        "player_a": "u_yadav",
                        "player_a_balls": 8,
                        "last_ball": "a0b8ae6c-8a85-406c-a3ec-c4676d9fdb9b",
                        "player_a_runs": 2,
                        "match": "indaus_2017_test_04",
                        "team": "a",
                        "run_rate": "3.50"
                    }
                ]
            }
        },
        "title": "India vs Australia - 4th Test Match - India vs Australia 2017",
        "dl_applied": false,
        "start_date": {
            "timestamp": 1490414400,
            "iso": "2017-03-25T04:00+00:00",
            "str": "25th Mar 2017 04:00 GMT"
        },
        "status": "completed",
        "man_of_match": "r_jadeja",
        "description": "India won by 8 wickets India scored 332/10 in 118.1 & 106/2 in 23.5 and Australia scored 300/10 in 88.3 & 137/10 in 53.5. Ravindra Jadeja played good and he is man of the match.",
        "short_name": "IND vs AUS",
        "format": "test",
        "season": {
            "name": "India vs Australia 2017",
            "key": "indaus_2017"
        },
        "expires": "1522783789.0",
        "status_overview": "result",
        "match_overs": 0,
        "key": "indaus_2017_test_04",
        "now": {
            "bowling_team": "b",
            "nonstriker": null,
            "runs_str": "106/2 in 23.5",
            "batting_team": "a",
            "runs": 106,
            "innings": "2",
            "recent_overs": [
                [
                    [
                        "24"
                    ],
                    [
                        "3ca78c44-9689-416b-b6f8-4d201aa894c4",
                        "648d18d6-9d60-43e8-821a-a2350ed383d7",
                        "85b61d9a-11b6-46f8-a9ce-8074b45f1083",
                        "e0893b1d-649b-4390-851e-55d7eb27b7da",
                        "6dfcfa8d-318f-42e5-b6f7-0ac6e03a59a2"
                    ]
                ],
                [
                    [
                        "23"
                    ],
                    [
                        "52c66376-af44-47f3-8ad7-e68b7ddc43ae",
                        "14856703-e8ff-4d48-914f-b3f107509fe8",
                        "61d567de-3177-48c3-b498-8fa6ece65941",
                        "b24c7641-26c1-46e3-b1d4-0be40a25f87d",
                        "8d1b3bf9-0937-44b8-94e9-54c44ebe5a4b",
                        "d36430e6-62ca-4684-9ddd-6145eadb7dd0"
                    ]
                ],
                [
                    [
                        "22"
                    ],
                    [
                        "2f10ebc3-16bd-452f-ac22-e20eae1f6543",
                        "58074504-6983-44ca-84a3-ab4c2adc71c7",
                        "190bb96b-8349-450e-b486-77d214f7dc1c",
                        "aaa7f4b4-64b8-44ef-b8b1-5e5722b430ca",
                        "371bc29e-cd3b-4c38-b186-8d1d52612b0f",
                        "e3278be0-ed59-4f74-b422-8e88ecb9243e"
                    ]
                ]
            ],
            "run_rate": "4.45",
            "req": {},
            "last_ball": {
                "comment": "Steve O'Keefe to Lokesh Rahul: 2 runs.",
                "wicket_type": "",
                "over": 24,
                "ball": "5",
                "highlight_names_keys": [
                    [
                        "over_end",
                        "l_rahul"
                    ],
                    [
                        "player_50",
                        "l_rahul"
                    ]
                ],
                "innings": "2",
                "wagon_position": null,
                "wicket": "",
                "match": "indaus_2017_test_04",
                "status": "played",
                "updated": "2017-03-28T05:22:48.960000",
                "ball_type": "normal",
                "batsman": {
                    "runs": 2,
                    "dotball": 0,
                    "six": 0,
                    "four": 0,
                    "ball_count": 1,
                    "key": "l_rahul"
                },
                "striker": "l_rahul",
                "batting_team": "a",
                "key": "6dfcfa8d-318f-42e5-b6f7-0ac6e03a59a2",
                "fielder": {},
                "nonstriker": "a_rahane",
                "runs": 2,
                "bowler": {
                    "runs": 2,
                    "extras": 0,
                    "ball_count": 1,
                    "key": "s_okeefe",
                    "wicket": 0
                },
                "over_str": "23.5",
                "extras": "0",
                "team": {
                    "runs": 2,
                    "extras": 0,
                    "ball_count": 1,
                    "wicket": 0
                }
            },
            "striker": null,
            "bowler": null,
            "lead_by_str": null,
            "next_ball": {
                "nonstriker": null,
                "bowler": null,
                "over": 0,
                "striker": null,
                "ball": 0,
                "over_str": null
            },
            "wicket": 2,
            "trail_by_str": null,
            "recent_overs_str": [
                [
                    [
                        "24"
                    ],
                    [
                        "r0",
                        "r0",
                        "r1",
                        "r1",
                        "r2"
                    ]
                ],
                [
                    [
                        "23"
                    ],
                    [
                        "r0",
                        "r1",
                        "e4,lb",
                        "r1",
                        "r1",
                        "r0"
                    ]
                ],
                [
                    [
                        "22"
                    ],
                    [
                        "r0",
                        "r2",
                        "r0",
                        "r0",
                        "b4",
                        "r0"
                    ]
                ]
            ],
            "balls": 143,
            "break": {
                "duration": "",
                "reason": ""
            }
        },
        "day": "4",
        "balls": {
            "ball_key": null,
            "ball": null
        },
        "name": "India vs Australia",
        "ref": "http://www.litzscore.com/series/indaus_2017/indaus_2017_test_04/",
        "venue": "Himachal Pradesh Cricket Association Stadium, Dharmasala, India",
        "teams": {
            "a": {
                "runs": 0,
                "extras": 0,
                "ball_count": 0,
                "wicket": 0
            },
            "b": {
                "runs": 0,
                "extras": 0,
                "ball_count": 0,
                "wicket": 0
            }
        },
        "players": {
            "player_x13": null,
            "player_x12": null,
            "player_x11": null,
            "player_x10": null,
            "player_y12": null,
            "player_y13": null,
            "player_x15": null,
            "player_x14": null,
            "player_y14": null,
            "player_y15": null,
            "player_y8": null,
            "player_y9": null,
            "player_y4": null,
            "player_y5": null,
            "player_y6": null,
            "player_y7": null,
            "player_y1": null,
            "player_y2": null,
            "player_y3": null,
            "player_y10": null,
            "player_y11": null,
            "player_x9": null,
            "player_x8": null,
            "player_x3": null,
            "player_x2": null,
            "player_x1": null,
            "player_x7": null,
            "player_x6": null,
            "player_x5": null,
            "player_x4": null
        },
        "data_review_checkpoint": "post-match-validated",
        "first_batting": "b",
        "result_by": "wickets",
        "cache_key": "match|indaus_2017_test_04|full_card"
    }
}